TidyVerseAssignment
…
## -- Conflicts --------------------------------------------------------------------------------- tidyverse_conflicts() --
## x dplyr::filter() masks stats::filter()
## x dplyr::lag()    masks stats::lag()

library(fivethirtyeight)

the package dplyr has many functions used for data manipulation and provides a set of verbs that allow you to perform helpful transformations. This includes: Mutate, select filter, summarise, arrange,group_by, order_by and many more. This Vignette will demonstrate the intent behind these functions and how to apply them.

 The dataset we will be working with is from the FiveThirtyEight package called "airlinesafety. this data set is shown below.

airline_safety

## # A tibble: 56 x 9
##    airline incl_reg_subsid~ avail_seat_km_p~ incidents_85_99
##    <chr>   <lgl>                       <dbl>           <int>
##  1 Aer Li~ FALSE                   320906734               2
##  2 Aerofl~ TRUE                   1197672318              76
##  3 Aeroli~ FALSE                   385803648               6
##  4 Aerome~ TRUE                    596871813               3
##  5 Air Ca~ FALSE                  1865253802               2
##  6 Air Fr~ FALSE                  3004002661              14
##  7 Air In~ TRUE                    869253552               2
##  8 Air Ne~ TRUE                    710174817               3
##  9 Alaska~ TRUE                    965346773               5
## 10 Alital~ FALSE                   698012498               7
## # ... with 46 more rows, and 5 more variables:
## #   fatal_accidents_85_99 <int>, fatalities_85_99 <int>,
## #   incidents_00_14 <int>, fatal_accidents_00_14 <int>,
## #   fatalities_00_14 <int>
…
1.1 Select

select - This function allows you to select specific a variables from a dataset, for example, if we wanted to select just the airline fieldn and incl_reg_subsidiaries field we would perform the following operation:

airline_safety%>% select(airline,incl_reg_subsidiaries)

## # A tibble: 56 x 2
##    airline               incl_reg_subsidiaries
##    <chr>                 <lgl>                
##  1 Aer Lingus            FALSE                
##  2 Aeroflot              TRUE                 
##  3 Aerolineas Argentinas FALSE                
##  4 Aeromexico            TRUE                 
##  5 Air Canada            FALSE                
##  6 Air France            FALSE                
##  7 Air India             TRUE                 
##  8 Air New Zealand       TRUE                 
##  9 Alaska Airlines       TRUE                 
## 10 Alitalia              FALSE                
## # ... with 46 more rows
…
## # A tibble: 1 x 2
##    mean     n
##   <dbl> <int>
## 1  4.12    56

1.4 Mutate

Mutate is a tool that allows us to transform our dataset using functions and transformations that we desire. For example, on this airline dataset we can add incidents that occured between 2000 and 2014 (variable "incidents_00_14) with incidents between 1985 and 1999

airline_safety %>% 
  mutate(All_Incidents = incidents_85_99+incidents_00_14) %>% 
  select(All_Incidents)

## # A tibble: 56 x 1
##    All_Incidents
##            <int>
##  1             2
##  2            82
##  3             7
##  4             8
##  5             4
##  6            20
##  7             6
##  8             8
##  9            10
## 10            11
## # ... with 46 more rows

1.5 Group By

Group_by is a function within Dplyr that allows users to perform summarisations or transformations on groups of data. This is useful in understanding subsets of data rather than the entire dataset. An example is shown below on the airline_safety dataset where we group by the logical vector "incl_reg_subsidiaries, and find the sum of incidents based on companies that include subsidiaries vs not. Mutate does not alter the shape of the dataframe, but the grouping is done in memory and can be shown as a separate column as done below. Tidyverse also has an enormous library of functions and a powerful visualization library named ggplot2. a sample plot of the dataset is shown below by plotting the dataframe above

airline_safety %>% 
  mutate(All_Incidents = incidents_85_99+incidents_00_14) %>% 
  group_by(incl_reg_subsidiaries,sum= sum(All_Incidents))

## # A tibble: 56 x 11
## # Groups:   incl_reg_subsidiaries, sum [2]
##    airline incl_reg_subsid~ avail_seat_km_p~ incidents_85_99
##    <chr>   <lgl>                       <dbl>           <int>
##  1 Aer Li~ FALSE                   320906734               2
##  2 Aerofl~ TRUE                   1197672318              76
##  3 Aeroli~ FALSE                   385803648               6
##  4 Aerome~ TRUE                    596871813               3
##  5 Air Ca~ FALSE                  1865253802               2
##  6 Air Fr~ FALSE                  3004002661              14
##  7 Air In~ TRUE                    869253552               2
##  8 Air Ne~ TRUE                    710174817               3
##  9 Alaska~ TRUE                    965346773               5
## 10 Alital~ FALSE                   698012498               7
## # ... with 46 more rows, and 7 more variables:
## #   fatal_accidents_85_99 <int>, fatalities_85_99 <int>,
## #   incidents_00_14 <int>, fatal_accidents_00_14 <int>,
## #   fatalities_00_14 <int>, All_Incidents <int>, sum <int>
…
##Joshuas Extension

Adding an extension to Sufians code using a dplyr function to average out approval ratings by group as a new column.

polls %>% group_by(subgroup)%>%
  mutate(Average_of_Approval_Estimate = mean(approve_estimate))

## # A tibble: 3,051 x 11
## # Groups:   subgroup [3]
##    president subgroup modeldate approve_estimate approve_hi approve_lo
##    <chr>     <chr>    <chr>                <dbl>      <dbl>      <dbl>
##  1 Donald T~ Voters   11/5/2019             42.4       46.7       38.1
##  2 Donald T~ Adults   11/5/2019             41.1       44.9       37.2
##  3 Donald T~ All pol~ 11/5/2019             41.4       45.6       37.2
##  4 Donald T~ Adults   11/4/2019             40.6       44.4       36.8
##  5 Donald T~ Voters   11/4/2019             41.5       45.7       37.4
##  6 Donald T~ All pol~ 11/4/2019             41.1       45.3       36.8
##  7 Donald T~ Voters   11/3/2019             41.6       45.8       37.4
##  8 Donald T~ Adults   11/3/2019             40.6       44.4       36.8
##  9 Donald T~ All pol~ 11/3/2019             41.2       45.4       36.9
## 10 Donald T~ Adults   11/2/2019             40.0       43.3       36.6
## # ... with 3,041 more rows, and 5 more variables:
## #   disapprove_estimate <dbl>, disapprove_hi <dbl>, disapprove_lo <dbl>,
## #   timestamp <chr>, Average_of_Approval_Estimate <dbl>
